…
    Rows: 290826 Columns: 24
    ── Column specification ────────────────────────────────────────────────────────
    Delimiter: ","
    chr  (5): thrower, receiver, gameID, home_teamID, away_teamID
    dbl (18): thrower_x, thrower_y, receiver_x, receiver_y, turnover, possession...
    lgl  (1): is_home_team

    ℹ Use `spec()` to retrieve the full column specification for this data.
    ℹ Specify the column types or set `show_col_types = FALSE` to quiet this message.

``` r
ufa_throws
```

    # A tibble: 290,826 × 24
       thrower thrower_x thrower_y receiver receiver_x receiver_y turnover
       <chr>       <dbl>     <dbl> <chr>         <dbl>      <dbl>    <dbl>
     1 jnissen      1.02      15.1 jmalks        -8.17       23.5        0
     2 jmalks      -8.17      23.5 jnissen        2.18       27.1        0
     3 jnissen      2.18      27.1 jmalks       -10.2        33.6        0
     4 jmalks     -10.2       33.6 jnissen       -3.94       26.8        0
     5 jnissen     -3.94      26.8 boort         13.0        36.3        0
     6 boort       13.0       36.3 jmalks         1.74       34.4        0
     7 jmalks       1.74      34.4 jnissen       -9.33       33.1        0
     8 jnissen     -9.33      33.1 khealey       -5.4        45.1        0
     9 khealey     -5.4       45.1 jnissen      -11.8        44.8        0
    10 jnissen    -11.8       44.8 cboxley       -0.08       44.3        0
    # ℹ 290,816 more rows
    # ℹ 17 more variables: possession_num <dbl>, possession_throw <dbl>,
    #   game_quarter <dbl>, is_home_team <lgl>, home_team_score <dbl>,
    #   away_team_score <dbl>, gameID <chr>, home_teamID <chr>, away_teamID <chr>,
    #   times <dbl>, home_team_win <dbl>, score_diff <dbl>, goal <dbl>,
    #   throw_distance <dbl>, x_diff <dbl>, y_diff <dbl>, throw_angle <dbl>
…
ufa_throws_updated
```

    # A tibble: 102,324 × 27
       thrower thrower_x thrower_y receiver receiver_x receiver_y turnover
       <chr>       <dbl>     <dbl> <chr>         <dbl>      <dbl>    <dbl>
     1 jnissen     -1.02      15.1 jmalks         8.17       23.5        0
     2 jmalks       8.17      23.5 jnissen       -2.18       27.1        0
     3 jnissen     -2.18      27.1 jmalks        10.2        33.6        0
     4 jmalks      10.2       33.6 jnissen        3.94       26.8        0
     5 jnissen      3.94      26.8 boort        -13.0        36.3        0
     6 boort      -13.0       36.3 jmalks        -1.74       34.4        0
     7 jmalks      -1.74      34.4 jnissen        9.33       33.1        0
     8 jnissen      9.33      33.1 khealey        5.4        45.1        0
     9 khealey      5.4       45.1 jnissen       11.8        44.8        0
    10 jnissen     11.8       44.8 cboxley        0.08       44.3        0
    # ℹ 102,314 more rows
    # ℹ 20 more variables: possession_num <dbl>, possession_throw <dbl>,
    #   game_quarter <dbl>, is_home_team <lgl>, home_team_score <dbl>,
    #   away_team_score <dbl>, gameID <chr>, home_teamID <chr>, away_teamID <chr>,
    #   times <dbl>, home_team_win <dbl>, score_diff <dbl>, goal <dbl>,
    #   throw_distance <dbl>, x_diff <dbl>, y_diff <dbl>, throw_angle <dbl>,
    #   team_in_possession <chr>, throw_path_type <chr>, attacking_phaseID <int>
…
attack_outcome_indicators
```

    # A tibble: 14,781 × 2
       attacking_phaseID attack_outcome
                   <int>          <dbl>
     1                 1              1
     2                 2              0
     3                 3              1
     4                 4              1
     5                 5              0
     6                 6              0
     7                 7              1
     8                 8              0
     9                 9              0
    10                10              1
    # ℹ 14,771 more rows

``` r
ufa_throws_updated <- ufa_throws_updated |>
  left_join(attack_outcome_indicators, join_by(attacking_phaseID))

ufa_throws_updated
```

    # A tibble: 102,324 × 28
       thrower thrower_x thrower_y receiver receiver_x receiver_y turnover
       <chr>       <dbl>     <dbl> <chr>         <dbl>      <dbl>    <dbl>
     1 jnissen     -1.02      15.1 jmalks         8.17       23.5        0
     2 jmalks       8.17      23.5 jnissen       -2.18       27.1        0
     3 jnissen     -2.18      27.1 jmalks        10.2        33.6        0
     4 jmalks      10.2       33.6 jnissen        3.94       26.8        0
     5 jnissen      3.94      26.8 boort        -13.0        36.3        0
     6 boort      -13.0       36.3 jmalks        -1.74       34.4        0
     7 jmalks      -1.74      34.4 jnissen        9.33       33.1        0
     8 jnissen      9.33      33.1 khealey        5.4        45.1        0
     9 khealey      5.4       45.1 jnissen       11.8        44.8        0
    10 jnissen     11.8       44.8 cboxley        0.08       44.3        0
    # ℹ 102,314 more rows
    # ℹ 21 more variables: possession_num <dbl>, possession_throw <dbl>,
    #   game_quarter <dbl>, is_home_team <lgl>, home_team_score <dbl>,
    #   away_team_score <dbl>, gameID <chr>, home_teamID <chr>, away_teamID <chr>,
    #   times <dbl>, home_team_win <dbl>, score_diff <dbl>, goal <dbl>,
    #   throw_distance <dbl>, x_diff <dbl>, y_diff <dbl>, throw_angle <dbl>,
    #   team_in_possession <chr>, throw_path_type <chr>, attacking_phaseID <int>, …
…
The endpoints of an attack by team, for unsuccessful attacks only (where
turnover happens). In other words, to what extent the attacking phase
has created additional danger up the field?

``` r
last_poss_throws <- ufa_throws_updated |>
  select(attacking_phaseID, possession_throw) |>
  group_by(attacking_phaseID) |>
  summarize(last_poss_throw = max(possession_throw))

last_poss_throws
```

    # A tibble: 14,781 × 2
       attacking_phaseID last_poss_throw
                   <int>           <dbl>
     1                 1              20
     2                 2               5
     3                 3               7
     4                 4              11
     5                 5               7
     6                 6               8
     7                 7               9
     8                 8               7
     9                 9               0
    10                10               1
    # ℹ 14,771 more rows

``` r
unsuccessful_poss_ends <- last_poss_throws |>
  left_join(ufa_throws_updated,
            join_by(attacking_phaseID, last_poss_throw == possession_throw))

unsuccessful_poss_ends
```

    # A tibble: 15,604 × 28
       attacking_phaseID last_poss_throw thrower   thrower_x thrower_y receiver 
                   <int>           <dbl> <chr>         <dbl>     <dbl> <chr>    
     1                 1              20 mmcdonnel      8.09      89.8 jmalks   
     2                 2               5 cdavisbra     22.5       95.4 tchan    
     3                 2               5 tchan         -2.74      95.5 cdavisbra
     4                 3               7 tedmonds      13.3       68.8 afall    
     5                 4              11 jtaylor1      20.2       96   pboerth  
     6                 5               7 mmcdonnel      8.89      41.5 <NA>     
     7                 6               8 skelley1     -19.0       66   <NA>     
     8                 7               9 boort         20.6       82.1 jwodatch1
     9                 8               7 cdavisbra      1         41.5 <NA>     
    10                 9               0 dbloodgoo     25.6       55.2 amerriman
    # ℹ 15,594 more rows
    # ℹ 22 more variables: receiver_x <dbl>, receiver_y <dbl>, turnover <dbl>,
    #   possession_num <dbl>, game_quarter <dbl>, is_home_team <lgl>,
    #   home_team_score <dbl>, away_team_score <dbl>, gameID <chr>,
    #   home_teamID <chr>, away_teamID <chr>, times <dbl>, home_team_win <dbl>,
    #   score_diff <dbl>, goal <dbl>, throw_distance <dbl>, x_diff <dbl>,
    #   y_diff <dbl>, throw_angle <dbl>, team_in_possession <chr>, …
…
